<svg xmlns="http://www.w3.org/2000/svg" viewBox="0 0 40 40">
  <defs>
    <style>
      .cls-1 {
        fill: #ff4a4a;
        opacity: 0.5;
      }
    </style>
  </defs>
  <path id="account-trans" class="cls-1" d="M22,36.4A14.464,14.464,0,0,1,10,30c.06-4,8-6.2,12-6.2S33.94,26,34,30a14.464,14.464,0,0,1-12,6.4M22,8a6,6,0,1,1-6,6,6,6,0,0,1,6-6m0-6A20,20,0,1,0,42,22,20,20,0,0,0,22,2Z" transform="translate(-2 -2)"/>
</svg>
