<svg xmlns="http://www.w3.org/2000/svg" viewBox="0 0 226.392 42.19">
  <defs>
    <style>
      .cls-1, .cls-3 {
        opacity: 0.6;
      }

      .cls-2, .cls-3 {
        fill: #ffb319;
      }

      .cls-2 {
        opacity: 0.75;
      }

      .cls-3 {
        font-size: 31px;
        font-family: Rockwell;
        letter-spacing: 0.01em;
      }
    </style>
  </defs>
  <g id="Gruppe_5" data-name="Gruppe 5" class="cls-1">
    <path id="briefcase-check" class="cls-2" d="M18.876,2h8.438a4.334,4.334,0,0,1,4.219,4.441v4.441h8.438a4.334,4.334,0,0,1,4.219,4.441V39.749a4.334,4.334,0,0,1-4.219,4.441H6.219A4.334,4.334,0,0,1,2,39.749V15.323a4.334,4.334,0,0,1,4.219-4.441h8.438V6.441A4.334,4.334,0,0,1,18.876,2m8.438,8.882V6.441H18.876v4.441h8.438M19.931,36.418l13.9-14.633-2.974-3.131L19.931,30.134l-4.409-4.619-2.974,3.131Z" transform="translate(-2 -2)"/>
    <text id="Work" class="cls-3" transform="translate(185.392 31.178)"><tspan x="-40.199" y="0">Work</tspan></text>
  </g>
</svg>
