<svg xmlns="http://www.w3.org/2000/svg" viewBox="0 0 40 34">
  <defs>
    <style>
      .cls-1 {
        fill: #e30075;
        opacity: 0.5;
      }
    </style>
  </defs>
  <path id="home-trans" class="cls-1" d="M18,37V25h8V37H36V21h6L22,3,2,21H8V37Z" transform="translate(-2 -3)"/>
</svg>
