<svg xmlns="http://www.w3.org/2000/svg" xmlns:xlink="http://www.w3.org/1999/xlink" viewBox="0 0 1920 1080">
  <defs>
    <style>
      .cls-1 {
        clip-path: url(#clip-Web_1920_2);
      }

      .cls-2 {
        fill: #ebe8e8;
      }

      .cls-3, .cls-5 {
        opacity: 0.6;
      }

      .cls-12, .cls-4, .cls-5 {
        fill: #ffb319;
      }

      .cls-4, .cls-8 {
        opacity: 0.75;
      }

      .cls-5, .cls-7, .cls-9 {
        font-size: 31px;
        font-family: Rockwell;
      }

      .cls-11, .cls-5, .cls-7, .cls-9 {
        letter-spacing: 0.01em;
      }

      .cls-6, .cls-7 {
        fill: #e30075;
      }

      .cls-11, .cls-8, .cls-9 {
        fill: #ff4a4a;
      }

      .cls-10 {
        fill: #615c5c;
      }

      .cls-11 {
        font-size: 140px;
        font-family: Vivaldii, Vivaldi;
      }

      .cls-13 {
        fill: #fff;
      }

      .cls-14 {
        filter: url(#Rechteck_13);
      }
    </style>
    <filter id="Rechteck_13" x="-9" y="-5" width="518" height="1097" filterUnits="userSpaceOnUse">
      <feOffset dy="3" input="SourceAlpha"/>
      <feGaussianBlur stdDeviation="3" result="blur"/>
      <feFlood flood-opacity="0.161"/>
      <feComposite operator="in" in2="blur"/>
      <feComposite in="SourceGraphic"/>
    </filter>
    <clipPath id="clip-Web_1920_2">
      <rect width="1920" height="1080"/>
    </clipPath>
  </defs>
  <g id="Web_1920_2" data-name="Web 1920 – 2" class="cls-1">
    <rect class="cls-13" width="1920" height="1080"/>
    <g class="cls-14" transform="matrix(1, 0, 0, 1, 0, 0)">
      <rect id="Rechteck_13-2" data-name="Rechteck 13" class="cls-2" width="500" height="1079" transform="translate(0 1)"/>
    </g>
    <g id="Gruppe_5" data-name="Gruppe 5" class="cls-3" transform="translate(22.561 766.673)">
      <path id="briefcase-check" class="cls-4" d="M18.876,2h8.438a4.334,4.334,0,0,1,4.219,4.441v4.441h8.438a4.334,4.334,0,0,1,4.219,4.441V39.749a4.334,4.334,0,0,1-4.219,4.441H6.219A4.334,4.334,0,0,1,2,39.749V15.323a4.334,4.334,0,0,1,4.219-4.441h8.438V6.441A4.334,4.334,0,0,1,18.876,2m8.438,8.882V6.441H18.876v4.441h8.438M19.931,36.418l13.9-14.633-2.974-3.131L19.931,30.134l-4.409-4.619-2.974,3.131Z" transform="translate(-2 -2)"/>
      <text id="Work" class="cls-5" transform="translate(185.392 31.178)"><tspan x="-40.199" y="0">Work</tspan></text>
    </g>
    <g id="Gruppe_6" data-name="Gruppe 6" class="cls-3" transform="translate(22.977 262.542)">
      <path id="home" class="cls-6" d="M18.876,38.861V26.2h8.438V38.861H37.861V21.985H44.19L23.095,3,2,21.985H8.328V38.861Z" transform="translate(-2 -3)"/>
      <text id="Home-2" data-name="Home" class="cls-7" transform="translate(191.524 32.253)"><tspan x="-42.621" y="0">Home</tspan></text>
    </g>
    <g id="Gruppe_7" data-name="Gruppe 7" transform="translate(22.561 512.973)">
      <path id="account-circle" class="cls-8" d="M23.095,38.283a15.255,15.255,0,0,1-12.657-6.75c.063-4.219,8.438-6.539,12.657-6.539s12.594,2.32,12.657,6.539a15.256,15.256,0,0,1-12.657,6.75m0-29.955a6.328,6.328,0,1,1-6.328,6.328,6.328,6.328,0,0,1,6.328-6.328m0-6.328A21.095,21.095,0,1,0,44.19,23.095,21.095,21.095,0,0,0,23.095,2Z" transform="translate(-2 -2)"/>
      <text id="Contact" class="cls-9" transform="translate(201.392 31.741)"><tspan x="-56.134" y="0">Contact</tspan></text>
    </g>
    <rect id="Rechteck_14" data-name="Rechteck 14" class="cls-10" width="1419.216" height="1078.945" transform="translate(500)"/>
    <text id="Mattte" class="cls-11" transform="translate(1206.027 326.244)"><tspan x="-186.532" y="0">Mattte</tspan></text>
    <path id="Pfad_9" data-name="Pfad 9" class="cls-6" d="M0,0H112.944V66.438H0Z" transform="translate(500 1013.563)"/>
    <rect id="Rechteck_15" data-name="Rechteck 15" class="cls-12" width="112.944" height="66.438" transform="translate(1805.851 1013.508)"/>
    <path id="Pfad_10" data-name="Pfad 10" class="cls-8" d="M0,0H112.944V66.438H0Z" transform="translate(1152.925 1013.563)"/>
  </g>
</svg>
